  -0.0315213  0
  0  31846
  0.0315213  0
  0.0630427  0
  0.094564  0
  0.126085  0
  0.157607  0
  0.189128  0
  0.220649  0
  0.252171  0
  0.283692  0
  0.315213  0
  0.346735  0
  0.378256  0
  0.409778  0
  0.441299  0
  0.47282  0
  0.504342  0
  0.535863  0
  0.567384  0
  0.598906  0
  0.630427  0
  0.661948  0
  0.69347  0
  0.724991  0
  0.756512  0
  0.788034  0
  0.819555  0
  0.851076  0
  0.882598  0
  0.914119  0
  0.94564  0
  0.977162  0
  1.00868  0
  1.0402  0
  1.07173  0
  1.10325  0
  1.13477  0
  1.16629  0
  1.19781  0
  1.22933  0
  1.26085  0
  1.29238  0
  1.3239  0
  1.35542  0
  1.38694  0
  1.41846  0
  1.44998  0
  1.4815  0
  1.51302  0
  1.54455  0
  1.57607  0
  1.60759  0
  1.63911  0
  1.67063  0
  1.70215  0
  1.73367  0
  1.7652  0
  1.79672  0
  1.82824  0
  1.85976  0
  1.89128  0
  1.9228  0
  1.95432  0
  1.98585  0
  2.01737  0
  2.04889  0
  2.08041  0
  2.11193  0
  2.14345  0
  2.17497  0
  2.20649  0
  2.23802  0
  2.26954  0
  2.30106  0
  2.33258  0
  2.3641  0
  2.39562  0
  2.42714  0
  2.45867  0
  2.49019  0
  2.52171  0
  2.55323  0
  2.58475  0
  2.61627  0
  2.64779  0
  2.67931  0
  2.71084  0
  2.74236  0
  2.77388  0
  2.8054  0
  2.83692  0
  2.86844  0
  2.89996  0
  2.93149  0
  2.96301  0
  2.99453  0
  3.02605  0
  3.05757  0
  3.08909  0
  3.12061  0
  3.15213  0
  3.18366  0
  3.21518  0
  3.2467  0
  3.27822  0
  3.30974  0
  3.34126  0
  3.37278  0
  3.40431  0
  3.43583  0
  3.46735  0
  3.49887  0
  3.53039  0
  3.56191  0
  3.59343  0
  3.62496  0
  3.65648  0
  3.688  0
  3.71952  0
  3.75104  0
  3.78256  0
  3.81408  0
  3.8456  0
  3.87713  0
  3.90865  0
  3.94017  0
  3.97169  0
  4.00321  0
  4.03473  0
  4.06625  0
  4.09778  0
  4.1293  0
  4.16082  0
  4.19234  0
  4.22386  0
  4.25538  0
  4.2869  0
  4.31842  0
  4.34995  0
  4.38147  0
  4.41299  0
  4.44451  0
  4.47603  0
  4.50755  0
  4.53907  0
  4.5706  0
  4.60212  0
  4.63364  0
  4.66516  0
  4.69668  0
  4.7282  0
  4.75972  0
  4.79125  0
  4.82277  0
  4.85429  0
  4.88581  0
  4.91733  0
  4.94885  0
  4.98037  0
  5.01189  0
  5.04342  0
  5.07494  0
  5.10646  0
  5.13798  0
  5.1695  0
  5.20102  0
  5.23254  0
  5.26407  0
  5.29559  0
  5.32711  0
  5.35863  0
  5.39015  0
  5.42167  0
  5.45319  0
  5.48471  0
  5.51624  0
  5.54776  0
  5.57928  0
  5.6108  95
  5.64232  0
